{
    "name":"Only letters and apostrophe are allowed & not empty.",
    "dob":"Select a date",
    "mobile":" This is a required field and the format is 04XXXXXXX ",
    "email":"Enter in abc@xyz.com format & not empty ",
    "address":"This is a required field",
    "passportNum":"This is a required field and the Format A1234567",
    "dlNum":"This is a required field and the Format 0123456789",
    "required_v":"This is a required field",
    "title":"Title is required",
    "tfn":"Enter in 123456789 format",
    "number1_99":"The number must be between 1-99 and not empty",
    "amount":"Amount should be less than 12 digits & not empty",
    "mname":"Only letters and apostrophe are allowed.",
    "refnumber":"Refrence number should be single digit",

    "url":{
          "mongoDB":"mongodb://latitude:latitude@ds131878.mlab.com:31878/latitudetest",
            "gmailID":"latitudefintechindia@gmail.com",
            "gmailPassword":"latitude@06",
            "host":"smtp.gmail.com",
            "port":"465"
    }
}